…
```{r}
#| label: lc2
fit |>
  filter(Sex == "female", State == "NSW") |>
  select(lc) |>
  report()
```

## Lee-Carter models
\fontsize{10}{9}\sf\vspace*{-0.2cm}

```
Age functions
# A tibble: 101 × 3
    Age    ax     bx
  <int> <dbl>  <dbl>
1     0 -4.07 0.0155
2     1 -6.20 0.0221
3     2 -6.89 0.0199
# i 98 more rows

Time coefficients
# A tsibble: 120 x 2 [1Y]
   Year    kt
  <int> <dbl>
1  1901 109.
2  1902 111.
3  1903 108.
# i 117 more rows
…
```{r}
#| label: fdm2
fit |>
  filter(Sex == "female", State == "NSW") |>
  select(hu) |>
  report()
```

## Functional data models
\fontsize{9}{8.5}\sf\vspace*{-0.2cm}

```
Coefficients
# A tsibble: 120 x 8 [1Y]
   Year  mean beta1  beta2   beta3     beta4   beta5   beta6
  <int> <dbl> <dbl>  <dbl>   <dbl>     <dbl>   <dbl>   <dbl>
1  1901     1  11.1 -0.522 -0.0553  0.207    0.358    0.0305
2  1902     1  11.8 -0.649  0.399   0.856    0.0319   0.422
3  1903     1  11.5 -0.930 -0.485   0.398    0.399   -0.376
4  1904     1  11.1 -0.827 -0.214  -0.000305 0.00125 -0.0783
5  1905     1  10.2 -0.563 -0.105   0.324    0.122    0.0478
# i 115 more rows
# i Use `print(n = ...)` to see more rows
…
