…
Options:
  Adjust method: dt
  Jump choice: fit
```

:::

\fontsize{10}{9}\sf

::: {.column width="50%"}

```
Age functions
# A tibble: 101 × 3
    Age    ax     bx
  <int> <dbl>  <dbl>
1     0 -4.07 0.0155
2     1 -6.20 0.0221
3     2 -6.89 0.0199
# i 98 more rows

Time coefficients
# A tsibble: 120 x 2 [1Y]
   Year    kt
  <int> <dbl>
1  1901 109.
2  1902 111.
3  1903 108.
# i 117 more rows
…
